Date,Infected,Recovered,Death
"Feb 20, 2021",533,473,0
"Feb 21, 2021",568,475,0
"Feb 22, 2021",593,475,0
"Feb 23, 2021",633,476,0
"Feb 24, 2021",697,477,0
"Feb 25, 2021",741,477,0
"Feb 26, 2021",767,477,0
"Feb 27, 2021",805,477,0
"Feb 28, 2021",820,477,0
"Mar 1, 2021",844,478,0
"Mar 2, 2021",878,482,0
"Mar 3, 2021",909,484,0
"Mar 4, 2021",932,489,0
"Mar 5, 2021",953,491,0
"Mar 6, 2021",987,510,0
"Mar 7, 2021",1011,517,0
"Mar 8, 2021",1011,517,0
"Mar 9, 2021",1124,549,0
"Mar 10, 2021",1163,597,0
"Mar 11, 2021",1225,619,1
"Mar 12, 2021",1264,623,1
"Mar 13, 2021",1305,647,1
"Mar 14, 2021",1325,730,1
"Mar 15, 2021",1325,730,1
"Mar 16, 2021",1505,840,1
"Mar 17, 2021",1541,898,1
"Mar 18, 2021",1578,917,1
"Mar 19, 2021",1578,917,2
"Mar 20, 2021",1578,917,2
"Mar 21, 2021",1753,967,3
"Mar 22, 2021",1788,999,4
"Mar 23, 2021",1817,1033,5
"Mar 24, 2021",1872,1056,5
"Mar 25, 2021",1968,1074,8
"Mar 26, 2021",2147,1132,8
"Mar 27, 2021",2233,1166,10
"Mar 28, 2021",2273,1172,11
"Mar 29, 2021",2378,1176,11
"Mar 30, 2021",2440,1191,11
"Mar 31, 2021",2477,1240,14
"Apr 1, 2021",2546,1256,16
"Apr 2, 2021",2645,1585,19
"Apr 3, 2021",2689,1653,19
"Apr 4, 2021",2752,1747,21
"Apr 5, 2021",2824,1794,22
"Apr 6, 2021",2915,1824,22
"Apr 7, 2021",3028,1914,24
"Apr 8, 2021",3604,1984,24
"Apr 9, 2021",4081,2080,26
"Apr 10, 2021",4238,2152,29
"Apr 11, 2021",4515,2212,30
"Apr 12, 2021",4696,2252,33
"Apr 13, 2021",4874,2290,35
"Apr 14, 2021",5218,2319,36
"Apr 15, 2021",5480,2393,38
"Apr 16, 2021",5771,2416,39
"Apr 17, 2021",6389,2476,43
"Apr 18, 2021",7013,2524,45
"Apr 19, 2021",7444,2555,49
"Apr 20, 2021",7747,2794,54
"Apr 21, 2021",8193,2924,59
"Apr 22, 2021",8848,3148,61
"Apr 23, 2021",9359,3210,71
"Apr 24, 2021",9975,3400,74
"Apr 25, 2021",10555,3577,79
"Apr 26, 2021",11063,3704,82
"Apr 27, 2021",11761,4698,88
"Apr 28, 2021",12641,4986,91
"Apr 29, 2021",13402,5152,93
"Apr 30, 2021",13790,5200,96
"May 1, 2021",14520,5369,103
"May 2, 2021",15361,5430,106
"May 3, 2021",16299,5791,107
"May 4, 2021",16971,6019,110
"May 5, 2021",17621,6843,114
"May 6, 2021",18179,6884,114
"May 7, 2021",18717,7340,114
"May 8, 2021",19237,7641,120
"May 9, 2021",19743,7820,126
"May 10, 2021",20223,8170,131
"May 11, 2021",20695,8539,136
"May 12, 2021",21141,9519,142
"May 13, 2021",21499,9867,147
"May 14, 2021",21834,10740,147
"May 15, 2021",22184,12120,150
"May 16, 2021",22544,13006,154
"May 17, 2021",22889,14343,156
"May 18, 2021",23282,14955,159
"May 19, 2021",23697,15700,164
"May 20, 2021",24157,16524,165
"May 21, 2021",24645,17164,167
"May 22, 2021",25205,17701,176
"May 23, 2021",25761,18359,179
"May 24, 2021",26329,19022,183
"May 25, 2021",26989,19772,190
"May 26, 2021",27638,20398,194
"May 27, 2021",28237,20900,196
"May 28, 2021",28825,21315,203
"May 29, 2021",29404,22188,209
"May 30, 2021",30094,22636,214
"May 31, 2021",30710,23389,220
"Jun 1, 2021",31460,24042,230
"Jun 2, 2021",32189,24763,236
"Jun 3, 2021",33075,25544,242
"Jun 4, 2021",33613,26078,252
"Jun 5, 2021",34244,27147,263
"Jun 6, 2021",34833,28092,266
"Jun 7, 2021",35511,28649,278
"Jun 8, 2021",36240,29047,289
"Jun 9, 2021",36666,29807,300
"Jun 10, 2021",37321,30617,311
"Jun 11, 2021",37959,31222,320
"Jun 12, 2021",38427,31858,335
"Jun 13, 2021",38969,32967,348
"Jun 14, 2021",39464,33571,361
"Jun 15, 2021",40157,34325,368
"Jun 16, 2021",40782,35030,380
"Jun 17, 2021",41581,35940,394
"Jun 18, 2021",42052,36868,414
"Jun 19, 2021",42711,37489,431
"Jun 20, 2021",43446,38003,441
"Jun 21, 2021",44124,38766,459
"Jun 22, 2021",44711,39314,475
"Jun 23, 2021",45366,40010,493
"Jun 24, 2021",46065,40769,509
"Jun 25, 2021",46810,41439,523
"Jun 26, 2021",47649,42157,540
"Jun 27, 2021",48532,42764,556
"Jun 28, 2021",49255,43473,575
"Jun 29, 2021",50385,44143,602
"Jun 30, 2021",51384,44858,628
"Jul 1, 2021",52350,45508,660
"Jul 2, 2021",53298,46123,696
"Jul 3, 2021",54291,46740,720
"Jul 4, 2021",55187,47386,748
"Jul 5, 2021",56122,48040,779
"Jul 6, 2021",57103,48974,798
"Jul 7, 2021",58057,50020,825
"Jul 8, 2021",59045,50917,855
"Jul 9, 2021",59978,51660,881
"Jul 10, 2021",60959,52475,902
"Jul 11, 2021",61870,53477,925
"Jul 12, 2021",62700,54489,953
"Jul 13, 2021",63615,55365,986
"Jul 14, 2021",64611,56178,1025
"Jul 15, 2021",65500,57027,1052
"Jul 16, 2021",66336,57955,1076
"Jul 17, 2021",67181,58930,1106
"Jul 18, 2021",67971,60017,1128
"Jul 19, 2021",68796,61039,1149
"Jul 20, 2021",69608,61779,1168
"Jul 21, 2021",70419,62577,1188
"Jul 22, 2021",71244,63474,1222
"Jul 23, 2021",72104,64548,1254
"Jul 24, 2021",72923,65264,1283
"Jul 25, 2021",73701,65950,1305
"Jul 26, 2021",74386,66725,1324
"Jul 27, 2021",75152,67692,1339
"Jul 28, 2021",75917,68386,1350
"Jul 29, 2021",76585,69198,1375
"Jul 30, 2021",77243,69996,1397
"Jul 31, 2021",77914,70754,1420