location_id,location_name_mm,location_name_en,latitude,longitude
ln000001,Washington Airport,,38.95351,-77.45647
ln000002,Doha Airport,,25.26835,51.60638
ln000003,Yangon International Airport,ရန်ကုန်အပြည်ပြည်ဆိုင်ရာလေဆိပ်,16.90441,96.13521
ln000004,Kalay Airport,ကလေးလေဆိပ်,23.18963,94.05218
ln000005,Cherry Photo Studio,,23.19351,94.03214
ln000006,Church,,23.36924,93.65347
ln000007,Tedim Hospital,,23.36894,93.65069